Working with Data in Tidyverse
…
# Filter rows where showstopper is NA 
bakeoff_ %>% filter(is.na(showstopper))

## # A tibble: 21 x 10
##    series episode baker signature technical showstopper result uk_airdate
##     <dbl>   <dbl> <chr> <chr>         <dbl> <chr>       <chr>  <date>    
##  1      1       1 Edd   "Caramel~         1 <NA>        IN     2010-08-17
##  2      1       1 Jasm~ "Fresh M~        NA <NA>        IN     2010-08-17
##  3      1       6 Mira~ "Lemon C~        NA <NA>        RUNNE~ 2010-09-21
##  4      2       1 Ian   "Apple a~        10 <NA>        IN     2011-08-16
##  5      2       1 Jason "Lemon M~         6 <NA>        IN     2011-08-16
##  6      2       1 Urva~ "Cherry ~         7 <NA>        IN     2011-08-16
##  7      2       1 Yasm~ "Cardamo~         5 <NA>        IN     2011-08-16
##  8      2       1 Holly "Cherry ~         1 <NA>        SB     2011-08-16
##  9      2       2 Ben   "Chorizo~         1 <NA>        IN     2011-08-23
## 10      2       2 Ian   "Stilton~         2 <NA>        IN     2011-08-23
## # ... with 11 more rows, and 2 more variables: us_season <dbl>,
## #   us_airdate <date>
…
desserts %>% 
    arrange(desc(uk_airdate))

## # A tibble: 549 x 16
##    series episode baker technical result uk_airdate us_season us_airdate
##     <dbl>   <dbl> <chr>     <dbl> <fct>  <date>         <dbl> <date>    
##  1      8      10 Kate          3 RUNNE~ 2017-10-31        NA NA        
##  2      8      10 Stev~         1 RUNNE~ 2017-10-31        NA NA        
##  3      8      10 Soph~         2 WINNER 2017-10-31        NA NA        
##  4      8       9 Kate          4 IN     2017-10-24        NA NA        
##  5      8       9 Stev~         3 IN     2017-10-24        NA NA        
##  6      8       9 Stac~         2 OUT    2017-10-24        NA NA        
##  7      8       9 Soph~         1 SB     2017-10-24        NA NA        
##  8      8       8 Kate          2 IN     2017-10-17        NA NA        
##  9      8       8 Soph~         4 IN     2017-10-17        NA NA        
## 10      8       8 Stev~         1 IN     2017-10-17        NA NA        
## # ... with 539 more rows, and 8 more variables: showstopper_chocolate <chr>,
## #   showstopper_dessert <chr>, showstopper_fruit <chr>, showstopper_nut <chr>,
## #   signature_chocolate <chr>, signature_dessert <chr>, signature_fruit <chr>,
## #   signature_nut <chr>
…
ratings3 <- ratings2  %>% 
    # Unite and change the separator
    unite(viewers_7day, viewers_millions, viewers_decimal, sep = "") %>%
    # Adapt to cast viewers as a number
    mutate(viewers_7day = as.numeric(viewers_7day))

# Print to view
ratings3

## # A tibble: 74 x 3
##    series episode viewers_7day
##     <dbl>   <dbl>        <dbl>
##  1      1       1         2.24
##  2      1       2         3   
##  3      1       3         3   
##  4      1       4         2.6 
##  5      1       5         3.03
##  6      1       6         2.75
##  7      2       1         3.1 
##  8      2       2         3.53
##  9      2       3         3.82
## 10      2       4         3.6 
## # ... with 64 more rows
…
